record,sample_no,order,counts,less_than_8,wing_counts
333,5722,acariformes,3873,1,0
438,5827,palpigradi,2842,1,0
334,5723,schizomida,1142,7,0
335,5724,araneae,203,0,0
336,5725,amblypygi,2447,0,0
337,5726,opiliones,1818,0,0
338,5727,pseudoscorpiones,2355,0,0
339,5728,Opiliones,319,0,0
340,5729,acariformes,3537,0,0
341,5730,pseudoscorpiones,2946,0,0
419,5808,parasitiformes,2760,0,0
342,5731,uropygi,1755,2,0
343,5732,schizomida,2681,8,0
344,5733,schizomida,975,0,0
345,5734,palpigradi,61,0,0
346,5735,scorpiones,368,0,0
347,5736,scorpiones,1632,0,0
348,5737,pseudoscorpiones,2395,0,0
349,5738,solifugae,3976,0,0
350,5739,pseudoscorpiones,550,0,0
351,5740,acariformes,331,0,0
352,5741,schizomida,3821,0,0
353,5742,opiliones,651,0,0
354,5743,uropygi,3296,0,0
355,5744,parasitiformes,1429,0,0
356,5745,araneae,892,0,0
357,5746,acariformes,2329,0,0
358,5747,acariformes,2969,0,0
359,5748,acariformes,1910,3,0
360,5749,solifugae,799,1,0
361,5750,scorpiones,1971,0,0
362,5751,opiliones,759,0,0
363,5752,uropygi,924,0,0
364,5753,araneae,2506,0,0
365,5754,parasitiformes,3494,0,0
366,5755,acariformes,40,0,0
367,5756,ricinulei,2260,0,0
368,5757,acariformes,2268,0,0
369,5758,ricinulei,3320,2,0
370,5759,uropygi,990,0,0
371,5760,uropygi,3853,0,0
372,5761,pseudoscorpiones,1853,0,0
373,5762,parasitiformes,3557,0,0
374,5763,amblypygi,2493,0,0
375,5764,parasitiformes,674,0,0
376,5765,acariformes,2612,1,0
377,5766,parasitiformes,4267,0,0
378,5767,parasitiformes,3698,0,0
379,5768,acariformes,2114,0,0
380,5769,acariformes,220,0,0
381,5770,parasitiformes,4147,3,0
382,5771,schizomida,1723,0,0
383,5772,schizomida,3851,0,0
384,5773,parasitiformes,3601,0,0
385,5774,opiliones,1915,0,0
386,5775,parasitiformes,2900,0,0
387,5776,pseudoscorpiones,1293,0,0
388,5777,scorpiones,182,0,0
389,5778,uropygi,2092,0,0
390,5779,parasitiformes,2086,0,0
391,5780,uropygi,1686,0,0
392,5781,acariformes,2824,3,0
393,5782,opiliones,879,0,0
394,5783,palpigradi,3281,0,0
395,5784,opiliones,702,0,0
396,5785,solifugae,547,0,0
397,5786,pseudoscorpiones,2965,0,0
398,5787,parasitiformes,3755,0,0
399,5788,opiliones,3572,3,0
400,5789,scorpiones,2078,6,0
401,5790,opiliones,699,3,0
402,5791,araneae,3953,0,0
403,5792,ricinulei,4289,0,0
404,5793,acariformes,845,0,0
405,5794,pseudoscorpiones,2688,0,0
406,5795,parasitiformes,2442,0,0
407,5796,palpigradi,2173,0,0
408,5797,parasitiformes,858,0,0
409,5798,pseudoscorpiones,2050,0,0
410,5799,parasitiformes,2432,0,0
411,5800,solifugae,2221,2,0
412,5801,opiliones,3531,0,0
407,5796,palpigradi,2173,0,0
413,5802,solifugae,1014,0,0
414,5803,amblypygi,256,0,0
415,5804,schizomida,3429,0,0
416,5805,uropygi,2450,0,0
417,5806,Opiliones,1955,2,0
418,5807,acariformes,828,0,0
419,5808,parasitiformes,2760,0,0
420,5809,uropygi,4261,0,0
421,5810,opiliones,2426,0,0
422,5811,solifugae,3529,0,0
423,5812,acariformes,3829,0,0
424,5813,parasitiformes,3642,6,0
425,5814,solifugae,2104,0,0
426,5815,amblypygi,581,0,0
427,5816,acariformes,54,0,0
428,5817,solifugae,1890,0,0
429,5818,araneae,1649,0,0
430,5819,parasitiformes,621,34,0
431,5820,uropygi,3069,0,0
432,5821,acariformes,1372,0,0
433,5822,schizomida,109,0,0
434,5823,schizomida,4184,0,0
435,5824,palpigradi,4103,0,0
436,5825,solifugae,4097,0,0
437,5826,opiliones,3453,0,0
438,5827,palpigradi,2842,1,0
439,5828,acariformes,1104,0,0
440,5829,ricinulei,2509,0,0
441,5830,opiliones,4208,0,0
442,5831,solifugae,1463,0,0
443,5832,acariformes,1100,0,0
444,5833,opiliones,2379,0,0
445,5834,pseudoscorpiones,131,1,0
446,5835,amblypygi,2380,4,0
447,5836,parasitiformes,1708,77,0
448,5837,pseudoscorpiones,2739,0,0
407,5796,palpigradi,2173,0,0
370,5759,uropygi,990,0,0
371,5760,uropygi,3853,0,0
338,5727,pseudoscorpiones,2355,0,0
396,5785,solifugae,547,0,0
448,5837,pseudoscorpiones,2739,0,0






