sample,day,bean_vol,bean_mg,color_cat,fiber_alpha,fiber_beta,terpene1,terpene2,message_log
117,3,0.216,4.2,,,50,355,0.242, Mr Neutron
118,3,0.304,,YP,48,38,298,0.114, LLANDDAROG
119,,0.296,5.13,,60,52,379,, Møøse trained by YUTTE HERMSGERVØRDENBRØTBØRDACARMARTHEN 
120,3,0.315,1.63,YP,53,35,281,0.209, Crelm Toothpaste
,3,0.23,2.48,Y0,56,37,254,, Semprini
