#0 useless meta data may be in the first rows.
alpha,beta,gamma,omega,err_message_for_llamas
#2the row above is the header, this line is useless
#3Well... lets move on to our guest who not only lives in Essex but also speaks only the ends of words. Mr Ohn Ith. Mr Ith, good evening.
1,2,3,4,"Nice to have you on the show"
5,6,7,8,"... ice ... o ... e ... ere"
9,10,11,12,"Mr Ith, don't you find it very difficult to make yourself understood?"
#7 the three rows above are the top three, rest of table is below this
13,14,15,16,"One on't cross beams gone owt askew on treddle."
17,18,19,20,"Including the majestik møøse A Møøse once bit my sister.."
33,777,875,4344,"No realli! She was Karving her initials on the møøse"
54,543,975,3566,"Norwegian møvies: The Høt Hands of an Oslo Dentist Fillings of Passion"
We apologise again for the fault in the subtitles. 
Those responsible for sacking the people who have just been sacked have been sacked. 
Møøse trained by YUTTE HERMSGERVØRDENBRØTBØRDA
